Project 1: Exploratory Data Analysis
…
The covid dataset has 4 variables: state, date, covidbeds, and totalinpatientsbeds. The icu dataset also contains 4 variables: state, date, icubeds, and totalicubeds. I was interested in these datasets because they are very relevant to our world currently. Many people have lost their lives and their loved ones because of this virus. I wanted to look at if certain states or divisions of the US were more affected than the others. I think that the number of COVID patients admitted will have a positive correlation with the number of ICU patients because COVID patients who are admitted to the hospitals are more likely to be in a severe condition to be in ICU.

1. Tidying: Rearranging Wide/Long (8 pts)

Tidy the datasets (using the tidyr functions pivot_longer/gather and/or pivot_wider/spread)

If you data sets are already tidy, be sure to use those functions somewhere else in your project

Document the process (describe in words what was done per the instructions)

# making the dataset `covid` untidy
covid %>% pivot_longer(contains("beds"), names_to = "name", values_to = "value")

## # A tibble: 3,286 x 4
##    state date    name                value
##    <chr> <chr>   <chr>               <dbl>
##  1 CW    9/10/20 covidbeds           39106
##  2 CW    9/10/20 totalinpatientbeds 715375
##  3 CW    9/11/20 covidbeds           38085
##  4 CW    9/11/20 totalinpatientbeds 716669
##  5 CW    9/12/20 covidbeds           37329
##  6 CW    9/12/20 totalinpatientbeds 714291
##  7 CW    9/13/20 covidbeds           36948
##  8 CW    9/13/20 totalinpatientbeds 708206
##  9 CW    9/14/20 covidbeds           37392
## 10 CW    9/14/20 totalinpatientbeds 712517
## # … with 3,276 more rows

# making the dataset `covid` tidy again
covid %>% pivot_longer(contains("beds"), names_to = "name", values_to = "value") %>% 
    pivot_wider(names_from = "name", values_from = "value")

## # A tibble: 1,643 x 4
##    state date    covidbeds totalinpatientbeds
##    <chr> <chr>       <dbl>              <dbl>
##  1 CW    9/10/20     39106             715375
##  2 CW    9/11/20     38085             716669
##  3 CW    9/12/20     37329             714291
##  4 CW    9/13/20     36948             708206
##  5 CW    9/14/20     37392             712517
##  6 CW    9/15/20     37866             711547
##  7 CW    9/16/20     37102             712376
##  8 CW    9/17/20     35795             714760
##  9 CW    9/18/20     35493             715606
## 10 CW    9/19/20     34991             713507
## # … with 1,633 more rows

My datasets were already tidy, so I made them untidy, using pivot_longer() and made them tidy again with pivot_wider(). For the dataset covid, I selected the variables that contain "beds," which are covidbeds and totalinpatientbeds, and used pivot_longer() to make the dataset long. After this, covidbeds and totalinpatientbeds were combined under the column name name, and the corresponding values were under the column name values. Then, I made the dataset tidy by using pivot_wider() and recreating the columns called covidbeds and totalinpatientbeds.

# making the dataset `icu` untidy
icu %>% pivot_longer(contains("icu"), names_to = "name", values_to = "value")

## # A tibble: 3,286 x 4
##    state date    name         value
##    <chr> <chr>   <chr>        <dbl>
##  1 CW    9/10/20 icubeds      56942
##  2 CW    9/10/20 totalicubeds 79693
##  3 CW    9/11/20 icubeds      56856
##  4 CW    9/11/20 totalicubeds 79569
##  5 CW    9/12/20 icubeds      55810
##  6 CW    9/12/20 totalicubeds 79489
##  7 CW    9/13/20 icubeds      54133
##  8 CW    9/13/20 totalicubeds 79389
##  9 CW    9/14/20 icubeds      54169
## 10 CW    9/14/20 totalicubeds 79441
## # … with 3,276 more rows

# making the dataset `icu` tidy again
icu %>% pivot_longer(contains("icu"), names_to = "name", values_to = "value") %>% 
    pivot_wider(names_from = "name", values_from = "value")

## # A tibble: 1,643 x 4
##    state date    icubeds totalicubeds
##    <chr> <chr>     <dbl>        <dbl>
##  1 CW    9/10/20   56942        79693
##  2 CW    9/11/20   56856        79569
##  3 CW    9/12/20   55810        79489
##  4 CW    9/13/20   54133        79389
##  5 CW    9/14/20   54169        79441
##  6 CW    9/15/20   56345        79903
##  7 CW    9/16/20   56834        79971
##  8 CW    9/17/20   57097        80422
##  9 CW    9/18/20   56972        80515
## 10 CW    9/19/20   55940        80488
## # … with 1,633 more rows
…
## [1] 1581

inner4 %>% summarize(state = n_distinct(state))

## # A tibble: 1 x 1
##   state
##   <int>
## 1    51

inner2 %>% group_by(state) %>% filter(covidbeds == max(covidbeds)) %>% 
    arrange(desc(covidbeds))

## # A tibble: 52 x 6
## # Groups:   state [51]
##    state date    covidbeds totalinpatientbeds icubeds totalicubeds
##    <chr> <chr>       <dbl>              <dbl>   <dbl>        <dbl>
##  1 TX    10/6/20      4324              58158    5626         6845
##  2 FL    9/10/20      4174              78321    4893         6258
##  3 CA    9/10/20      4029              60783    5195         7196
##  4 GA    9/10/20      2445              16822    1659         1965
##  5 IL    10/8/20      2006              28385    2098         3360
##  6 NY    10/6/20      1977              48056    3089         5148
##  7 OH    10/8/20      1419              28293    2580         3691
##  8 NC    10/7/20      1414              21293    1902         2412
##  9 WI    10/9/20      1386              12361    1026         1597
## 10 MO    10/7/20      1302              18194    1561         2201
## # … with 42 more rows

inner2 %>% filter(state == "TX") %>% select(-state) %>% arrange(desc(covidbeds))

## # A tibble: 31 x 5
##    date     covidbeds totalinpatientbeds icubeds totalicubeds
##    <chr>        <dbl>              <dbl>   <dbl>        <dbl>
##  1 10/6/20       4324              58158    5626         6845
##  2 10/8/20       4290              60238    5755         6878
##  3 10/7/20       4264              59227    5685         6978
##  4 9/10/20       4258              58529    5760         6945
##  5 10/10/20      4212              61124    5506         7155
##  6 10/9/20       4202              60720    5578         7181
##  7 9/11/20       4198              58628    5670         6872
##  8 9/15/20       4170              57621    5642         6978
##  9 9/12/20       4152              57725    5563         6942
## 10 9/22/20       4114              58321    5637         6898
## # … with 21 more rows

inner2 %>% filter(state == "TX") %>% mutate(covidpercent = covidbeds/totalinpatientbeds * 
    100) %>% arrange(desc(covidpercent))

## # A tibble: 31 x 7
##    state date    covidbeds totalinpatientbeds icubeds totalicubeds covidpercent
##    <chr> <chr>       <dbl>              <dbl>   <dbl>        <dbl>        <dbl>
##  1 TX    10/6/20      4324              58158    5626         6845         7.43
##  2 TX    9/10/20      4258              58529    5760         6945         7.28
##  3 TX    9/15/20      4170              57621    5642         6978         7.24
##  4 TX    10/7/20      4264              59227    5685         6978         7.20
##  5 TX    9/13/20      4093              56900    5443         6847         7.19
##  6 TX    9/12/20      4152              57725    5563         6942         7.19
##  7 TX    9/14/20      4092              57042    5516         6935         7.17
##  8 TX    9/21/20      4056              56593    5564         6930         7.17
##  9 TX    9/11/20      4198              58628    5670         6872         7.16
## 10 TX    10/5/20      4032              56425    5437         6782         7.15
## # … with 21 more rows

inner4 %>% group_by(state, month) %>% arrange(icubeds)

## # A tibble: 1,581 x 7
## # Groups:   state, month [102]
##    state month covidbeds totalinpatientbeds icubeds totalicubeds division
##    <chr> <chr>     <dbl>              <dbl>   <dbl>        <dbl> <chr>   
##  1 WY    Sep          30               1525      33          119 8       
##  2 WY    Sep          35               1512      35          116 8       
##  3 VT    Sep           4                697      36           63 1       
##  4 WY    Sep          28               1516      36          116 8       
##  5 WY    Sep          41               1506      36          116 8       
##  6 WY    Sep          32               1525      38          119 8       
##  7 WY    Sep          45               1512      38          116 8       
##  8 WY    Sep          43               1512      40          116 8       
##  9 WY    Sep          45               1512      40          116 8       
## 10 WY    Oct          47               1511      40          116 8       
## # … with 1,571 more rows
…
inner4 %>% summarize(mean = mean(covidbeds, na.rm = T), sd = sd(covidbeds, 
    na.rm = T), n = n(), se = sd/sqrt(n))

## # A tibble: 1 x 4
##    mean    sd     n    se
##   <dbl> <dbl> <int> <dbl>
## 1  722.  836.  1581  21.0

inner4 %>% group_by(state) %>% summarize(mean = mean(covidbeds, 
    na.rm = T), sd = sd(covidbeds, na.rm = T), n = n(), se = sd/sqrt(n))

## # A tibble: 51 x 5
##    state   mean     sd     n     se
##    <chr>  <dbl>  <dbl> <int>  <dbl>
##  1 AK      48.8   6.24    31   1.12
##  2 AL     921.   28.6     31   5.14
##  3 AR     558.   66.8     31  12.0 
##  4 AZ     568.   70.1     31  12.6 
##  5 CA    3397.  255.      31  45.8 
##  6 CO     317.   50.4     31   9.06
##  7 CT     204.   42.2     31   7.58
##  8 DC     147.   11.0     31   1.98
##  9 DE     112.   25.2     31   4.53
## 10 FL    2813.  570.      31 102.  
## # … with 41 more rows

inner4 %>% group_by(state) %>% summarize(mean = mean(totalinpatientbeds), 
    sd = sd(totalinpatientbeds), n = n(), se = sd/sqrt(n))

## # A tibble: 51 x 5
##    state   mean     sd     n     se
##    <chr>  <dbl>  <dbl> <int>  <dbl>
##  1 AK     1516.  145.     31  26.1 
##  2 AL    14108.   62.0    31  11.1 
##  3 AR     7794.   65.3    31  11.7 
##  4 AZ    11369.  397.     31  71.4 
##  5 CA    60960.  404.     31  72.5 
##  6 CO     9732.   34.9    31   6.26
##  7 CT     8097.   21.8    31   3.92
##  8 DC     2853.   40.6    31   7.30
##  9 DE     2280.   92.4    31  16.6 
## 10 FL    76092. 1399.     31 251.  
## # … with 41 more rows
…
inner4 %>% summarize(mean = mean(icubeds, na.rm = T), sd = sd(icubeds, 
    na.rm = T), n = n(), se = sd/sqrt(n))

## # A tibble: 1 x 4
##    mean    sd     n    se
##   <dbl> <dbl> <int> <dbl>
## 1 1107. 1228.  1581  30.9

inner4 %>% group_by(state) %>% summarize(mean = mean(icubeds, 
    na.rm = T), sd = sd(icubeds, na.rm = T), n = n(), se = sd/sqrt(n))

## # A tibble: 51 x 5
##    state   mean    sd     n    se
##    <chr>  <dbl> <dbl> <int> <dbl>
##  1 AK      81.5  13.3    31  2.39
##  2 AL    1243.   27.5    31  4.94
##  3 AR     739.   21.8    31  3.91
##  4 AZ     804.   36.8    31  6.61
##  5 CA    4922.  119.     31 21.4 
##  6 CO     778.   37.7    31  6.77
##  7 CT     516.   18.9    31  3.40
##  8 DC     250.   12.0    31  2.15
##  9 DE     122.   12.5    31  2.25
## 10 FL    4721.  113.     31 20.2 
## # … with 41 more rows

inner4 %>% summarize(mean = mean(totalicubeds, na.rm = T), sd = sd(totalicubeds, 
    na.rm = T), n = n(), se = sd/sqrt(n))

## # A tibble: 1 x 4
##    mean    sd     n    se
##   <dbl> <dbl> <int> <dbl>
## 1 1570. 1677.  1581  42.2

inner4 %>% group_by(state) %>% summarize(mean = mean(totalicubeds, 
    na.rm = T), sd = sd(totalicubeds, na.rm = T), n = n(), se = sd/sqrt(n))

## # A tibble: 51 x 5
##    state  mean    sd     n     se
##    <chr> <dbl> <dbl> <int>  <dbl>
##  1 AK     108. 29.7     31  5.34 
##  2 AL    1477. 19.0     31  3.41 
##  3 AR     950.  8.14    31  1.46 
##  4 AZ    1414. 59.0     31 10.6  
##  5 CA    7132. 37.8     31  6.79 
##  6 CO    1208. 13.1     31  2.36 
##  7 CT    1047.  1.66    31  0.297
##  8 DC     350. 11.5     31  2.06 
##  9 DE     154.  9.76    31  1.75 
## 10 FL    6241. 31.8     31  5.71 
## # … with 41 more rows
…
